ae1,li1,le1
ae1,li1,le2
ae1,li1,le3
ae1,li1,le4
ae1,li1,le5
ae1,li1,le6
ae1,li1,le7
ae1,li2,le1
ae1,li2,le2
ae1,li2,le3
ae1,li2,le4
ae1,li2,le5
ae1,li2,le6
ae1,li2,le7
ae1,li3,le1
ae1,li3,le2
ae1,li3,le3
ae1,li3,le4
ae1,li3,le5
ae1,li3,le6
ae1,li3,le7
ae2,li1,le1
ae2,li1,le2
ae2,li1,le3
ae2,li1,le4
ae2,li1,le5
ae2,li1,le6
ae2,li1,le7
ae2,li2,le1
ae2,li2,le2
ae2,li2,le3
ae2,li2,le4
ae2,li2,le5
ae2,li2,le6
ae2,li2,le7
ae2,li3,le1
ae2,li3,le2
ae2,li3,le3
ae2,li3,le4
ae2,li3,le5
ae2,li3,le6
ae2,li3,le7
