{
    "seccion_1":
    [
      {
        "direccion":5,
        "x":[0,"right","2.5%"],
        "y":[0,"top","150px"],
        "info":"Bienvenido al Configurador de tu Casa Ambiant&reg;.<br> ____",
        "botonTipe":4,
        "circuloTipe":[0,0],
        "actionNext":0,
        "actionBack":0
      },
      {
        "direccion":1,
        "x":[0,"right","2.5%"],
        "y":[0,"top","150px"],
        "info":"Este es el panel de navegación, estará disponible durante todo tu recorrido, aquí puedes cambiar entre los diferentes apartados del configurador, solicitar asesoría, etc.",
        "botonTipe":1,
        "circuloTipe":["mapa",85],
        "actionNext":0,
        "actionBack":0
      },
      {
        "direccion":4,
        "x":[-120,"left","52%"],
        "y":[30,"top","54%"],
        "info":"Seleccione uno de los cinco diferentes FRACCIONAMIENTOS disponibles para construir tu casa.",
        "botonTipe":2,
        "circuloTipe":["seleccionaTerreno",220],
        "actionNext":1,
        "actionBack":1
      },
      {
        "direccion":2,
        "x":[0,"right","420px"],
        "y":[0,"bottom","95px"],
        "info":"Aquí puede revisar la información del FRACCIONAMIENTO seleccionado, si cambias de opinión puede regresar a modificarlo.",
        "botonTipe":3,
        "circuloTipe":[0,0],
        "actionNext":1,
        "actionBack":1
      }
    ],
    "seccion_2":
    [
      {
        "direccion":3,
        "x":[-240,"left","50%"],
        "y":[-80,"top","50%"],
        "info":"Elije el MODELO de tu preferencia, estos proporcionan diferentes opciones de estilo y distribución para tu casa.",
        "botonTipe":1,
        "circuloTipe":["plantas",120],
        "actionNext":2,
        "actionBack":0
      },
      {
        "direccion":4,
        "x":[-130,"left","50%"],
        "y":[-70,"top","50%"],
        "info":"Selecciona el CRECIMIENTO que desees añadir a la configuración de tu casa. Da click en Ver detalle para ampliar la imagen.",
        "botonTipe":2,
        "circuloTipe":["plantas",120],
        "actionNext":5,
        "actionBack":5
      },
      {
        "direccion":4,
        "x":[-130,"left","50%"],
        "y":[-70,"top","50%"],
        "info":"Para quitar una planta, vuelve a posicionarte encima y da click.",
        "botonTipe":2,
        "circuloTipe":["menuModelo",235],
        "actionNext":6,
        "actionBack":6
      },
      {
        "direccion":2,
        "x":[-110,"left","50%"],
        "y":[-150,"top","50%"],
        "info":"Aquí puedes revisar la configuración selecionada.",
        "botonTipe":3,
        "circuloTipe":["pintores",50],
        "actionNext":0,
        "actionBack":4
      }
    ],
    "seccion_3":
    [
      {
        "direccion":3,
        "x":[-250,"left","50%"],
        "y":[-300,"top","88%"],
        "info":"Selecciona el tipo de FACHADA que deseas para tu casa, puedes elegir uno de los tres diferentes estilos.",
        "botonTipe":1,
        "circuloTipe":["leftMenu",35],
        "actionNext":0,
        "actionBack":0
      },
      {
        "direccion":4,
        "x":[0,"left","150px"],
        "y":[-60,"top","50%"],
        "info":"A la izquierda se presentan las distintas características seleccionables que puedes personalizar de tu casa.",
        "botonTipe":2,
        "circuloTipe":["contInfoExterior",180],
        "actionNext":2,
        "actionBack":2
      },
      {
        "direccion":4,
        "x":[0,"left","470px"],
        "y":[-60,"top","50%"],
        "info":"Selecciona un ACABADO para visualizarlo en la imagen, algunas opciones no se reflejan en la misma pero si quedan guardadas.",
        "botonTipe":2,
        "circuloTipe":["contInfoExterior",180],
        "actionNext":3,
        "actionBack":3
      },
      {
        "direccion":4,
        "x":[0,"left","470px"],
        "y":[-60,"top","50%"],
        "info":"Si deseas cambiar una característica, simplemente de click sobre ella, las opciones marcadas con una estrella son ACABADOS PLUS.",
        "botonTipe":3,
        "circuloTipe":["fachadas",50],
        "actionNext":2,
        "actionBack":2
      }
    ],
    "seccion_4":
    [
      {
        "direccion":4,
        "x":[0,"left","260px"],
        "y":[-65,"top","50%"],
        "info":"A la izquierda se presentan las distintas características seleccionables que puedes personalizar de tu casa.",
        "botonTipe":1,
        "circuloTipe":["contInfoInterior",180],
        "actionNext":1,
        "actionBack":0
      },
      {
        "direccion":4,
        "x":[0,"left","550px"],
        "y":[-40,"top","50%"],
        "info":"Selecciona un ACABADO para visualizarlo en la imagen, algunas opciones no se reflejan en la misma pero si quedan guardadas.",
        "botonTipe":2,
        "circuloTipe":["contInfoInterior",180],
        "actionNext":4,
        "actionBack":4
      },
      {
        "direccion":4,
        "x":[0,"left","550px"],
        "y":[-40,"top","50%"],
        "info":"Si deseas cambiar una característica, simplemente de click sobre ella, las opciones marcadas con una estrella son ACABADOS PLUS.",
        "botonTipe":3,
        "circuloTipe":["leftMenuExtended",50],
        "actionNext":3,
        "actionBack":3
      }
    ]
}
