<?xml version="1.0" encoding="utf-8"?>
<!-- Generator: Adobe Illustrator 16.0.0, SVG Export Plug-In . SVG Version: 6.00 Build 0)  -->
<!DOCTYPE svg PUBLIC "-//W3C//DTD SVG 1.1//EN" "http://www.w3.org/Graphics/SVG/1.1/DTD/svg11.dtd">
<svg version="1.1" id="FK" xmlns="http://www.w3.org/2000/svg" xmlns:xlink="http://www.w3.org/1999/xlink" x="0px" y="0px"
	 width="50px" height="50px" viewBox="0 0 50 50" enable-background="new 0 0 50 50" xml:space="preserve">
<g>
	<path fill="#FFFFFF" d="M25,3.625C13.214,3.625,3.625,13.214,3.625,25S13.214,46.375,25,46.375S46.375,36.786,46.375,25
		S36.786,3.625,25,3.625z M25,42.375c-9.581,0-17.375-7.794-17.375-17.375c0-9.581,7.794-17.375,17.375-17.375
		S42.375,15.419,42.375,25C42.375,34.581,34.581,42.375,25,42.375z"/>
	<path fill="#FFFFFF" d="M38.981,25.527c-0.781-0.781-2.047-0.781-2.828,0l-9.942,9.942c-0.781,0.781-0.781,2.047,0,2.828
		c0.391,0.391,0.902,0.586,1.414,0.586s1.023-0.195,1.414-0.586l9.942-9.942C39.763,27.574,39.763,26.309,38.981,25.527z"/>
</g>
</svg>
