<?xml version="1.0" encoding="utf-8"?>
<!-- Generator: Adobe Illustrator 19.0.0, SVG Export Plug-In . SVG Version: 6.00 Build 0)  -->
<svg version="1.1" xmlns="http://www.w3.org/2000/svg" xmlns:xlink="http://www.w3.org/1999/xlink" x="0px" y="0px"
	 viewBox="0 0 50 50" style="enable-background:new 0 0 50 50;" xml:space="preserve">
<style type="text/css">
	.st0{fill:#595959;}
</style>
<g id="Layer_1">
</g>
<g id="FK">
	<g>
		<path class="st0" d="M21.4,40.5c0.2,0.1,1.1,0.4,3.7,0.4c2.5,0,3.5-0.3,3.7-0.4c0.5-0.2,0.8-0.8,0.6-1.3s-0.8-0.8-1.3-0.6
			c0,0-0.8,0.3-3,0.3c-2.1,0-2.9-0.2-3-0.3c-0.5-0.2-1.1,0.1-1.3,0.6C20.6,39.7,20.8,40.3,21.4,40.5z"/>
		<path class="st0" d="M46.8,22.5c-0.7-0.9-1.7-1.4-2.7-1.6c0.2-1.6,0.3-3.4,0.3-5.6c-0.2-6-4.3-9.4-9-11.3c-1.6-0.7-3.5-1.3-6-1.6
			C27.7,2.1,26.1,2,24.7,2C17.9,2,5.1,4.6,4.8,15.2c-0.1,2.2,0,4,0.2,5.6c-1,0.2-2.1,0.7-2.9,1.7c-1.1,1.4-1.3,3.4-0.4,5.8
			c1.7,4.6,5,6.5,7.1,7.3c1.4,4.6,3.3,8.3,4.7,9.7c0.1,0.1,0.4,0.3,0.5,0.5C15.4,47.1,18,49.9,25,50v0c7,0,9.3-1.7,11.1-3.5l0-0.2
			c1.6-1.5,3.3-5.8,4.6-10.9c2.1-0.9,5.1-2.8,6.6-7.1C48.1,25.9,48,23.9,46.8,22.5z M34.8,24.3c-0.7-1.5-2.3-2.6-4-2.6
			c-1.9,0-3.6,1.2-4.2,2.9c-1.4-0.5-2.7-0.3-3.7,0.1c-0.6-1.7-2.3-3-4.2-3c-1.8,0-3.3,1.1-4,2.6l-4.1-2.2c0-2.1,0.3-4,0.8-5.7
			c0-0.1,0-0.1,0-0.2c0.6-1.5,1.4-3.2,2.7-4.7C17.8,6.8,24.6,7,24.6,7s6.8-0.2,10.5,4.5c1.7,2.2,2.7,4.6,3.2,6.4
			c0.2,1.4,0.2,2.9,0.2,4.4L34.8,24.3z M33.2,26.2c0,1.4-1.1,2.5-2.5,2.5s-2.5-1.1-2.5-2.5c0-1.4,1.1-2.5,2.5-2.5
			S33.2,24.8,33.2,26.2z M16.3,25.9c0-0.1,0-0.1,0-0.2c0.2-1.2,1.2-2.1,2.4-2.1c1.4,0,2.5,1.1,2.5,2.5c0,1.4-1.1,2.5-2.5,2.5
			s-2.5-1.1-2.5-2.5C16.2,26.1,16.3,26,16.3,25.9z M5.6,26.9c-0.4-1.2-0.3-1.8-0.2-1.9c0.1-0.1,0.3-0.2,0.6-0.3
			c0.4,1.2,0.8,2,1.1,2.5c0.1,0.9,0.3,1.8,0.5,2.7C6.7,29.2,6,28.2,5.6,26.9z M29.7,37.1c0.7,1.4,1.7,3.8,0.3,5.7
			c-1.2,1.6-5,1.5-5,1.5s-3.7,0.1-4.9-1.5c-1.4-1.8-0.4-4.3,0.4-5.7C22.9,37.6,27.3,37.6,29.7,37.1z M33.7,42.9
			c-0.2-2.8-1.4-7.2-3.3-8.3l0,0c-1.1-0.9-3.1-1.7-5.3-1.7c-2.2,0-4.1,0.8-5.3,1.7l0,0c-1.8,1.1-3.1,5.2-3.4,8
			c-0.1-0.1-0.2-0.2-0.2-0.2c-1.8-1.7-5-10.1-5.6-17.9l3.6,1.9c0.1,2.4,2,4.3,4.5,4.3c2.3,0,4.1-1.7,4.4-3.8c0.6-0.3,2-0.8,3.2-0.1
			c0.3,2.2,2.1,3.9,4.4,3.9c2.4,0,4.4-1.9,4.5-4.3l3.2-1.7C37.8,32.3,35.4,40.4,33.7,42.9z M43.5,26.9c-0.4,1.2-1.1,2.2-1.7,2.9
			c0.1-0.8,0.2-1.6,0.3-2.3c0.3-0.5,0.8-1.3,1.2-2.7c0.2,0.1,0.3,0.1,0.4,0.2C43.8,25.1,43.9,25.7,43.5,26.9z"/>
	</g>
</g>
</svg>
