<?xml version="1.0" encoding="utf-8"?>
<!-- Generator: Adobe Illustrator 16.0.0, SVG Export Plug-In . SVG Version: 6.00 Build 0)  -->
<!DOCTYPE svg PUBLIC "-//W3C//DTD SVG 1.1//EN" "http://www.w3.org/Graphics/SVG/1.1/DTD/svg11.dtd">
<svg version="1.1" id="FK" xmlns="http://www.w3.org/2000/svg" xmlns:xlink="http://www.w3.org/1999/xlink" x="0px" y="0px"
	 width="50px" height="50px" viewBox="0 0 50 50" enable-background="new 0 0 50 50" xml:space="preserve">
<path fill="#FFFFFF" d="M45.529,23.586l-8.2-8.202l0.394-0.394c0.375-0.375,0.586-0.883,0.586-1.414c0-0.53-0.211-1.039-0.586-1.414
	L26.414,0.853c-0.75-0.75-2.078-0.75-2.828,0l-11.309,11.31c-0.375,0.375-0.586,0.884-0.586,1.414c0,0.531,0.211,1.039,0.586,1.414
	l0.584,0.584l-8.01,8.012c-0.781,0.781-0.781,2.047,0,2.828l8.087,8.087l-0.662,0.661c-0.375,0.375-0.586,0.884-0.586,1.414
	s0.211,1.039,0.586,1.414l11.309,11.308c0.391,0.391,0.902,0.586,1.414,0.586s1.023-0.195,1.414-0.586L37.723,37.99
	c0.375-0.375,0.586-0.884,0.586-1.414s-0.211-1.039-0.586-1.414l-0.471-0.471l8.277-8.277
	C46.311,25.633,46.311,24.367,45.529,23.586z M25,5.095l8.48,8.481L25,22.056l-7.887-7.887c-0.003-0.003-0.005-0.007-0.009-0.01
	s-0.007-0.005-0.01-0.008l-0.574-0.574L25,5.095z M9.094,25l6.596-6.598l6.673,6.673l-6.597,6.597L9.094,25z M25,45.056l-8.48-8.479
	L25,28.095l8.48,8.481L25,45.056z M34.424,31.862l-6.787-6.787l6.864-6.863L41.287,25L34.424,31.862z"/>
</svg>
