<?xml version="1.0" encoding="utf-8"?>
<!-- Generator: Adobe Illustrator 16.0.0, SVG Export Plug-In . SVG Version: 6.00 Build 0)  -->
<!DOCTYPE svg PUBLIC "-//W3C//DTD SVG 1.1//EN" "http://www.w3.org/Graphics/SVG/1.1/DTD/svg11.dtd">
<svg version="1.1" xmlns="http://www.w3.org/2000/svg" xmlns:xlink="http://www.w3.org/1999/xlink" x="0px" y="0px" width="56px"
	 height="56px" viewBox="0 0 56 56" enable-background="new 0 0 56 56" xml:space="preserve">
<g id="Layer_1">
</g>
<g id="Guides" display="none">
</g>
<g id="Layer_2">
</g>
<g id="Layer_4">
	<circle fill="#FFFEFC" cx="28" cy="28" r="28"/>
	<g>
		<rect x="31.5" y="30" fill="#F37520" width="4" height="2"/>
		<rect x="19.5" y="30" fill="#F37520" width="4" height="2"/>
		<path fill="#F37520" d="M41.292,24.5c0-1.93-1.487-3.5-3.314-3.5H36.5v-0.5c0-0.828-0.672-1.5-1.5-1.5h-2
			c-0.828,0-1.5,0.672-1.5,1.5V21h-2v-4h2c0.828,0,1.5-0.672,1.5-1.5S32.328,14,31.5,14H28c-0.828,0-1.5,0.672-1.5,1.5V21h-2v-0.5
			c0-0.828-0.672-1.5-1.5-1.5h-2c-0.828,0-1.5,0.672-1.5,1.5V21h-1.478c-1.827,0-3.314,1.57-3.314,3.5
			c0,0.857,0.306,1.634,0.792,2.243V39.5c0,1.759,1.309,3.204,3,3.449V44.5c0,0.828,0.672,1.5,1.5,1.5h2c0.828,0,1.5-0.672,1.5-1.5
			V43h9v1.5c0,0.828,0.672,1.5,1.5,1.5h2c0.828,0,1.5-0.672,1.5-1.5v-1.551c1.691-0.245,3-1.69,3-3.449V26.743
			C40.986,26.134,41.292,25.357,41.292,24.5z M18.022,24H21h2h10h2h2.978c0.128,0,0.314,0.194,0.314,0.5S38.105,25,37.978,25H37.5
			h-19h-0.478c-0.128,0-0.314-0.194-0.314-0.5S17.895,24,18.022,24z M22,40h-2h-1c-0.275,0-0.5-0.225-0.5-0.5V28h8v12H22z M37,40h-1
			h-2h-4.5V28h8v11.5C37.5,39.775,37.275,40,37,40z"/>
	</g>
</g>
</svg>
