<?xml version="1.0" encoding="utf-8"?>
<!-- Generator: Adobe Illustrator 16.0.0, SVG Export Plug-In . SVG Version: 6.00 Build 0)  -->
<!DOCTYPE svg PUBLIC "-//W3C//DTD SVG 1.1//EN" "http://www.w3.org/Graphics/SVG/1.1/DTD/svg11.dtd">
<svg version="1.1" id="Layer_1" xmlns="http://www.w3.org/2000/svg" xmlns:xlink="http://www.w3.org/1999/xlink" x="0px" y="0px"
	 width="56px" height="56px" viewBox="0 0 56 56" enable-background="new 0 0 56 56" xml:space="preserve">
<g id="Layer_1_1_">
	<circle fill="#FFFEFC" cx="28" cy="28" r="28"/>
</g>
<g id="Layer_1_2_">
	<circle fill="#FFFEFC" cx="28" cy="28" r="28"/>
</g>
<g id="Guides" display="none">
</g>
<g id="Layer_2">
</g>
<g id="Layer_4">
	<path fill="#F37520" d="M43.5,41V15c0-1.384-0.917-3-3.5-3H15c-2.583,0-3.5,1.616-3.5,3v26c-0.828,0-1.5,0.672-1.5,1.5
		s0.672,1.5,1.5,1.5h1h14h17c0.828,0,1.5-0.672,1.5-1.5S44.328,41,43.5,41z M25.5,29h-4v-2h4V29z M31.5,41h-3V15h3V41z M40.5,41h-6
		v-6h6V41z M40.5,32h-6v-8h6V32z M40.5,21h-6v-6H40c0.242,0,0.404,0.028,0.5,0.056V21z"/>
</g>
</svg>
