<?xml version="1.0" encoding="utf-8"?>
<!-- Generator: Adobe Illustrator 16.0.0, SVG Export Plug-In . SVG Version: 6.00 Build 0)  -->
<!DOCTYPE svg PUBLIC "-//W3C//DTD SVG 1.1//EN" "http://www.w3.org/Graphics/SVG/1.1/DTD/svg11.dtd">
<svg version="1.1" xmlns="http://www.w3.org/2000/svg" xmlns:xlink="http://www.w3.org/1999/xlink" x="0px" y="0px" width="56px"
	 height="56px" viewBox="0 0 56 56" enable-background="new 0 0 56 56" xml:space="preserve">
<g id="Layer_1">
	<circle fill="#FFFEFC" cx="28" cy="28" r="28"/>
</g>
<g id="Guides" display="none">
</g>
<g id="Layer_2">
</g>
<g id="Layer_4">
	<g>
		<path fill="#F37520" d="M30.503,22h-8.387H20.5v2h-4v-6c0-0.829-0.672-1.5-1.5-1.5s-1.5,0.671-1.5,1.5v24
			c0,0.828,0.672,1.5,1.5,1.5s1.5-0.672,1.5-1.5v-5h4v2h1.616h8.387c1.397,0,2.997-0.577,2.997-2.479V24.744
			C33.5,22.843,31.9,22,30.503,22z M16.5,34v-7h4v7H16.5z"/>
		<path fill="#F37520" d="M42.965,23c-0.174-3.42-1.244-5.68-3.211-7.398c-2.164-1.891-4.832-2.204-6.395-2.202l-0.409-3.023
			l-7.101,5.488l8.303,3.406l-0.389-2.876c1.118,0.063,2.74,0.366,4.017,1.481c1.301,1.137,2.033,2.706,2.187,5.124h-2.954
			l4.487,7.771L45.987,23H42.965z"/>
	</g>
</g>
</svg>
