<?xml version="1.0" encoding="utf-8"?>
<!-- Generator: Adobe Illustrator 16.0.0, SVG Export Plug-In . SVG Version: 6.00 Build 0)  -->
<!DOCTYPE svg PUBLIC "-//W3C//DTD SVG 1.1//EN" "http://www.w3.org/Graphics/SVG/1.1/DTD/svg11.dtd">
<svg version="1.1" xmlns="http://www.w3.org/2000/svg" xmlns:xlink="http://www.w3.org/1999/xlink" x="0px" y="0px" width="15.73px"
	 height="15px" viewBox="0 0 15.73 15" enable-background="new 0 0 15.73 15" xml:space="preserve">
<g id="Layer_2">
</g>
<g id="Layer_1">
	<path fill="#FCB414" d="M15.484,6.265L12.054,9.61l0.813,4.728c0.008,0.066,0.008,0.123,0.008,0.189
		c0,0.246-0.113,0.473-0.387,0.473c-0.132,0-0.264-0.047-0.378-0.112l-4.244-2.232l-4.244,2.232C3.498,14.953,3.375,15,3.243,15
		c-0.274,0-0.397-0.227-0.397-0.473c0-0.066,0.01-0.123,0.019-0.189L3.677,9.61l-3.44-3.346C0.124,6.143,0,5.981,0,5.812
		c0-0.284,0.294-0.396,0.529-0.436l4.746-0.688l2.126-4.301C7.487,0.205,7.647,0,7.865,0s0.378,0.205,0.463,0.387l2.126,4.301
		l4.746,0.688c0.226,0.039,0.529,0.151,0.529,0.436C15.73,5.981,15.607,6.143,15.484,6.265z"/>
</g>
</svg>
