<?xml version="1.0" encoding="utf-8"?>
<!-- Generator: Adobe Illustrator 16.0.0, SVG Export Plug-In . SVG Version: 6.00 Build 0)  -->
<!DOCTYPE svg PUBLIC "-//W3C//DTD SVG 1.1//EN" "http://www.w3.org/Graphics/SVG/1.1/DTD/svg11.dtd">
<svg version="1.1" id="FK" xmlns="http://www.w3.org/2000/svg" xmlns:xlink="http://www.w3.org/1999/xlink" x="0px" y="0px"
	 width="50px" height="50px" viewBox="0 0 50 50" enable-background="new 0 0 50 50" xml:space="preserve">
<g>
	<path fill="#595959" d="M18.73,22.508c-1.729,0-3.129,1.45-3.129,2.002c0,0.549,1.4,1.733,3.129,1.733
		c1.727,0,3.128-1.253,3.128-1.733C21.858,24.027,20.457,22.508,18.73,22.508z"/>
	<path fill="#595959" d="M34.229,24.51c0-0.482-1.401-2.002-3.129-2.002c-1.727,0-3.129,1.45-3.129,2.002
		c0,0.549,1.402,1.733,3.129,1.733C32.828,26.243,34.229,24.99,34.229,24.51z"/>
	<path fill="#595959" d="M35,31c-0.553,0-1,0.447-1,1v2c0,0.421-0.826,0.757-1.646,0.902c-2.421,0.431-5.13-0.365-5.354-0.915
		C26.993,33.44,26.548,33,26,33c-0.552,0-1,0.447-1,1c0,0.593,0.286,1.696,2.202,2.418c1.02,0.384,2.363,0.604,3.686,0.604
		C34.041,37.022,36,35.864,36,34v-2C36,31.447,35.553,31,35,31z"/>
	<path fill="#595959" d="M24,34c0-0.553-0.448-1-1-1s-1,0.447-1,1c0,0.246-1.223,1.022-3.345,1.022C17.142,35.022,16,34.583,16,34
		v-2c0-0.553-0.448-1-1-1s-1,0.447-1,1v2c0,1.047,0.599,1.914,1.687,2.441c0.992,0.48,2.161,0.581,2.968,0.581
		C21.311,37.022,24,35.984,24,34z"/>
	<path fill="#595959" d="M28.721,38.04c-0.009,0.002-0.987,0.265-3.721,0.265c-2.688,0-3.679-0.254-3.72-0.265
		c-0.525-0.152-1.077,0.145-1.237,0.669c-0.161,0.528,0.137,1.087,0.665,1.248c0.117,0.035,1.231,0.348,4.292,0.348
		s4.175-0.313,4.291-0.348c0.524-0.16,0.816-0.709,0.663-1.234S29.251,37.891,28.721,38.04z"/>
	<path fill="#595959" d="M46.719,25.326c-1.069-1.795-2.896-2.562-3.969-2.871c1.952-8.732,0.826-14.341-0.905-16.592
		C38.436,1.433,28.752,0,24.597,0h-0.766C19.675,0,9.992,1.433,6.583,5.864c-1.523,1.98-2.56,7.546-0.89,16.904
		c-1.024,0.428-2.272,1.196-3.083,2.558c-0.665,1.116-1.245,3.03-0.233,5.811c2.12,5.831,5.126,6.071,6.354,5.894l0.066,0.002
		c0.828,4.343,1.909,7.836,3.028,8.934C12.79,46.912,17,50,25,50s12.119-3.088,13.085-4.035c1.116-1.095,2.184-4.573,2.995-8.899
		c0.015,0,0.026,0.002,0.041,0.002c1.424,0,3.969-0.811,5.831-5.931C47.963,28.356,47.383,26.442,46.719,25.326z M7.911,33.138
		c-0.006,0-1.031-1.321-1.776-3.368c-0.378-1.042-0.411-1.844-0.096-2.385c0.301-0.516,0.919-0.835,1.41-1.009
		c0.147,2.213,0.385,4.488,0.692,6.68L7.911,33.138z M35.184,43.108C34.881,43.405,32,46,25,46s-10.078-2.595-10.361-2.871
		c-2.386-2.817-4.559-25.208-2.707-27.854C13.535,13.19,18,11.945,25,11.945c6,0,11.373,1.245,12.974,3.325
		C39.828,17.92,37.549,40.311,35.184,43.108z M43.192,29.77c-0.495,1.363-0.989,2.188-1.385,2.679
		c0.251-1.931,0.445-3.914,0.572-5.854c0.356,0.186,0.706,0.441,0.909,0.79C43.604,27.926,43.571,28.728,43.192,29.77z"/>
	<path fill="#595959" d="M27.954,19.001c-0.552,0.025-0.979,0.493-0.953,1.045s0.502,0.963,1.045,0.953
		c2.237-0.1,5.925,0.171,6.728,1.082c0.077,0.088,0.095,0.146,0.075,0.256c-0.094,0.544,0.271,1.062,0.814,1.156
		c0.058,0.01,0.115,0.015,0.172,0.015c0.478,0,0.9-0.343,0.984-0.83c0.123-0.711-0.065-1.375-0.546-1.92
		C34.55,18.803,29.042,18.952,27.954,19.001z"/>
	<path fill="#595959" d="M14.082,22.081c0.801-0.909,4.492-1.186,6.728-1.082c0.581,0.021,1.02-0.402,1.044-0.954
		c0.025-0.552-0.402-1.019-0.954-1.044c-1.084-0.048-6.595-0.198-8.319,1.757c-0.48,0.544-0.668,1.208-0.545,1.92
		c0.084,0.487,0.507,0.83,0.984,0.83c0.057,0,0.114-0.005,0.171-0.015c0.544-0.094,0.909-0.612,0.815-1.156
		C13.988,22.227,14.004,22.169,14.082,22.081z"/>
</g>
</svg>
