<?xml version="1.0" encoding="utf-8"?>
<!-- Generator: Adobe Illustrator 16.0.0, SVG Export Plug-In . SVG Version: 6.00 Build 0)  -->
<!DOCTYPE svg PUBLIC "-//W3C//DTD SVG 1.1//EN" "http://www.w3.org/Graphics/SVG/1.1/DTD/svg11.dtd">
<svg version="1.1" xmlns="http://www.w3.org/2000/svg" xmlns:xlink="http://www.w3.org/1999/xlink" x="0px" y="0px" width="56px"
	 height="56px" viewBox="0 0 56 56" enable-background="new 0 0 56 56" xml:space="preserve">
<g id="Layer_1">
	<circle fill="#FFFEFC" cx="28" cy="28" r="28"/>
</g>
<g id="Guides" display="none">
</g>
<g id="Layer_2">
</g>
<g id="Layer_4">
	<path fill="#595959" d="M43.5,41h-1.051c0.024-0.165,0.051-0.329,0.051-0.5v-25c0-1.93-1.57-3.5-3.5-3.5H15
		c-1.93,0-3.5,1.57-3.5,3.5v25c0,0.171,0.026,0.335,0.051,0.5H11.5c-0.828,0-1.5,0.672-1.5,1.5s0.672,1.5,1.5,1.5H15h24h4.5
		c0.828,0,1.5-0.672,1.5-1.5S44.328,41,43.5,41z M29.5,15v26h-3V15H29.5z M14.5,40.5V19h2.375c0.416,0,0.625,0,0.625,0.719V20
		c-0.828,0-1.5,0.672-1.5,1.5s0.672,1.5,1.5,1.5h3c0.828,0,1.5-0.672,1.5-1.5S21.328,20,20.5,20v-0.281
		C20.5,17.46,19.077,16,16.875,16H14.5v-0.5c0-0.275,0.225-0.5,0.5-0.5h8.5v26H15C14.725,41,14.5,40.775,14.5,40.5z M32.5,41V15H39
		c0.275,0,0.5,0.225,0.5,0.5v25c0,0.275-0.225,0.5-0.5,0.5H32.5z"/>
</g>
</svg>
