<?xml version="1.0" encoding="utf-8"?>
<!-- Generator: Adobe Illustrator 16.0.0, SVG Export Plug-In . SVG Version: 6.00 Build 0)  -->
<!DOCTYPE svg PUBLIC "-//W3C//DTD SVG 1.1//EN" "http://www.w3.org/Graphics/SVG/1.1/DTD/svg11.dtd">
<svg version="1.1" id="Layer_1" xmlns="http://www.w3.org/2000/svg" xmlns:xlink="http://www.w3.org/1999/xlink" x="0px" y="0px"
	 width="56px" height="56px" viewBox="0 0 56 56" enable-background="new 0 0 56 56" xml:space="preserve">
<g id="Layer_1_1_">
	<circle fill="#FFFEFC" cx="28" cy="28" r="28"/>
</g>
<g id="Guides" display="none">
</g>
<g id="Layer_2">
</g>
<g id="Layer_4">
	<g>
		<path fill="#595959" d="M16.261,24.004c1.915,0,3.242-1.313,3.201-3.222l-0.006-0.476c-0.737-0.194-1.374-0.704-1.722-1.38
			c-1.508,0.066-2.398,0.335-2.968,1.821c-0.061,0.154-0.201,0.248-0.368,0.248c-0.281,0-1.146-0.689-1.394-0.857
			C13.005,22.195,13.989,24.004,16.261,24.004z"/>
		<path fill="#595959" d="M20.119,19.75c0.569,0,1.052-0.228,1.46-0.609c0.837-0.771,2.593-4.046,3.115-5.037
			c0.16-0.315,0.301-0.656,0.301-1.012c0-0.637-0.563-1.092-1.172-1.092c-0.328,0-0.637,0.147-0.871,0.361l-4.273,3.879
			c-0.396,0.361-0.616,0.884-0.616,1.42C18.063,18.786,18.986,19.75,20.119,19.75z"/>
		<path fill="#595959" d="M44.486,29.872c-0.002-0.037,0-0.074-0.006-0.111c-0.002-0.01-0.006-0.019-0.008-0.028
			c-0.012-0.055-0.027-0.105-0.043-0.158c-0.014-0.044-0.023-0.09-0.041-0.133c-0.018-0.041-0.037-0.076-0.059-0.115
			c-0.023-0.053-0.051-0.104-0.08-0.147c-0.02-0.024-0.038-0.05-0.059-0.073c-0.039-0.055-0.08-0.105-0.127-0.152
			c-0.016-0.018-0.033-0.03-0.051-0.046c-0.055-0.05-0.107-0.099-0.17-0.142c-0.018-0.012-0.035-0.021-0.054-0.029
			c-0.063-0.041-0.13-0.078-0.2-0.108c-0.02-0.009-0.041-0.015-0.061-0.021c-0.07-0.027-0.141-0.054-0.215-0.067
			c-0.028-0.006-0.059-0.007-0.086-0.013c-0.067-0.01-0.138-0.021-0.207-0.021C43.018,28.502,43.009,28.5,43,28.5
			c-0.04,0-0.077,0.009-0.115,0.012c-0.042,0.004-0.082,0.001-0.123,0.008L41.648,28.7c0.514-1.288,0.355-2.415,0.33-2.568
			c-0.11-0.642-0.625-1.139-1.271-1.229L23.71,22.515c-0.436-0.061-0.866,0.068-1.193,0.354S22.001,23.565,22.001,24
			c0,0.998-0.197,1.576-1.835,2.392l-8.451,1.636C11.01,28.164,10.5,28.781,10.5,29.5c0,0.066,0.025,0.125,0.033,0.188
			C10.512,29.789,10.5,29.895,10.5,30v5.5c0,0.719,0.51,1.336,1.215,1.473l15.5,3C27.31,39.991,27.404,40,27.5,40
			s0.19-0.009,0.285-0.027l15.5-3C43.99,36.836,44.5,36.219,44.5,35.5V30C44.5,29.956,44.49,29.915,44.486,29.872z M27.5,36.973
			l-14-2.71v-2.944l13.715,2.654C27.309,33.991,27.404,34,27.5,34c0.08,0,0.16-0.007,0.239-0.02L41.5,31.76v2.502L27.5,36.973z"/>
	</g>
</g>
</svg>
