<?xml version="1.0" encoding="utf-8"?>
<!-- Generator: Adobe Illustrator 16.0.0, SVG Export Plug-In . SVG Version: 6.00 Build 0)  -->
<!DOCTYPE svg PUBLIC "-//W3C//DTD SVG 1.1//EN" "http://www.w3.org/Graphics/SVG/1.1/DTD/svg11.dtd">
<svg version="1.1" xmlns="http://www.w3.org/2000/svg" xmlns:xlink="http://www.w3.org/1999/xlink" x="0px" y="0px" width="56px"
	 height="56px" viewBox="0 0 56 56" enable-background="new 0 0 56 56" xml:space="preserve">
<g id="Layer_1">
	<circle fill="#FFFEFC" cx="28" cy="28" r="28"/>
</g>
<g id="Guides" display="none">
</g>
<g id="Layer_2">
</g>
<g id="Layer_4">
	<path fill="#595959" d="M42,15.5c-0.828,0-1.5,0.672-1.5,1.5h-3v-0.5c0-1.93-1.57-3.5-3.5-3.5H21c-1.93,0-3.5,1.57-3.5,3.5V17h-3
		c0-0.828-0.672-1.5-1.5-1.5s-1.5,0.672-1.5,1.5v5c0,0.828,0.672,1.5,1.5,1.5s1.5-0.672,1.5-1.5h3v17.5c0,1.93,1.57,3.5,3.5,3.5h13
		c1.93,0,3.5-1.57,3.5-3.5V22h3c0,0.828,0.672,1.5,1.5,1.5s1.5-0.672,1.5-1.5v-5C43.5,16.172,42.828,15.5,42,15.5z M20.5,17v-0.5
		c0-0.275,0.225-0.5,0.5-0.5h13c0.275,0,0.5,0.225,0.5,0.5V34h-14V22V17z M34,40H21c-0.275,0-0.5-0.225-0.5-0.5V37h14v2.5
		C34.5,39.775,34.275,40,34,40z"/>
</g>
</svg>
