<?xml version="1.0" encoding="utf-8"?>
<!-- Generator: Adobe Illustrator 16.0.0, SVG Export Plug-In . SVG Version: 6.00 Build 0)  -->
<!DOCTYPE svg PUBLIC "-//W3C//DTD SVG 1.1//EN" "http://www.w3.org/Graphics/SVG/1.1/DTD/svg11.dtd">
<svg version="1.1" id="Layer_1" xmlns="http://www.w3.org/2000/svg" xmlns:xlink="http://www.w3.org/1999/xlink" x="0px" y="0px"
	 width="56px" height="56px" viewBox="0 0 56 56" enable-background="new 0 0 56 56" xml:space="preserve">
<g id="Layer_1_1_">
	<circle fill="#FFFEFC" cx="28" cy="28" r="28"/>
</g>
<g id="Guides" display="none">
</g>
<g id="Layer_2">
</g>
<g id="Layer_4">
	<g>
		<path fill="#595959" d="M18.823,30.923c-0.729-0.384-1.64-0.104-2.025,0.629l-3.75,7.125c-0.386,0.732-0.104,1.64,0.629,2.025
			c0.223,0.116,0.461,0.173,0.697,0.173c0.539,0,1.06-0.291,1.328-0.802l3.75-7.125C19.838,32.216,19.557,31.309,18.823,30.923z"/>
		<path fill="#595959" d="M37.702,31.552c-0.388-0.733-1.293-1.016-2.024-0.629c-0.734,0.386-1.016,1.293-0.63,2.025l3.75,7.125
			c0.269,0.511,0.789,0.802,1.328,0.802c0.235,0,0.476-0.057,0.696-0.173c0.734-0.386,1.016-1.293,0.63-2.025L37.702,31.552z"/>
		<path fill="#595959" d="M27,31.5c-0.828,0-1.5,0.672-1.5,1.5v7c0,0.828,0.672,1.5,1.5,1.5s1.5-0.672,1.5-1.5v-7
			C28.5,32.172,27.828,31.5,27,31.5z"/>
		<path fill="#595959" d="M41.046,16H13.538c-1.126,0-2.038,0.896-2.038,2v3c0,0.888,0.593,1.631,1.408,1.893
			c1.384,4.002,7.126,6.762,14.436,6.762c7.571,0,13.679-2.869,14.978-6.999C42.984,22.295,43.5,21.688,43.5,21v-3
			C43.5,16.896,42.172,16,41.046,16z M16.7,23h21.706c-1.889,1.793-5.912,3.654-11.063,3.654C22.323,26.654,18.49,24.793,16.7,23z"
			/>
	</g>
</g>
</svg>
