<?xml version="1.0" encoding="utf-8"?>
<!-- Generator: Adobe Illustrator 16.0.0, SVG Export Plug-In . SVG Version: 6.00 Build 0)  -->
<!DOCTYPE svg PUBLIC "-//W3C//DTD SVG 1.1//EN" "http://www.w3.org/Graphics/SVG/1.1/DTD/svg11.dtd">
<svg version="1.1" id="Layer_1" xmlns="http://www.w3.org/2000/svg" xmlns:xlink="http://www.w3.org/1999/xlink" x="0px" y="0px"
	 width="56px" height="56px" viewBox="0 0 56 56" enable-background="new 0 0 56 56" xml:space="preserve">
<g id="Layer_1_1_">
	<circle fill="#FFFEFC" cx="28" cy="28" r="28"/>
</g>
<g id="Guides" display="none">
</g>
<g id="Layer_2">
</g>
<g id="Layer_4">
	<g>
		<path fill="#595959" d="M40.5,41h-1V15.5c0-1.93-1.57-3.5-3.5-3.5H18.667c-0.126,0-0.241,0.016-0.358,0.03l-0.08-0.013L18,12
			c-1.93,0-3.5,1.57-3.5,3.5V41h-2c-0.828,0-1.5,0.672-1.5,1.5s0.672,1.5,1.5,1.5h3c0.08,0,0.157-0.012,0.234-0.023l14.972,2.994
			L31,47c1.759,0,3.204-1.309,3.449-3H37.5h2h1c0.828,0,1.5-0.672,1.5-1.5S41.328,41,40.5,41z M31.5,43.5
			c0,0.242-0.173,0.443-0.4,0.49L17.5,41.27V15.5c0-0.25,0.184-0.457,0.424-0.494l12.848,1.977L31,17c0.275,0,0.5,0.225,0.5,0.5
			V43.5z"/>
		<circle fill="#595959" cx="27.75" cy="30.344" r="1.563"/>
	</g>
</g>
</svg>
