<?xml version="1.0" encoding="utf-8"?>
<!-- Generator: Adobe Illustrator 16.0.0, SVG Export Plug-In . SVG Version: 6.00 Build 0)  -->
<!DOCTYPE svg PUBLIC "-//W3C//DTD SVG 1.1//EN" "http://www.w3.org/Graphics/SVG/1.1/DTD/svg11.dtd">
<svg version="1.1" xmlns="http://www.w3.org/2000/svg" xmlns:xlink="http://www.w3.org/1999/xlink" x="0px" y="0px" width="56px"
	 height="56px" viewBox="0 0 56 56" enable-background="new 0 0 56 56" xml:space="preserve">
<g id="Layer_1">
	<circle fill="#FFFEFC" cx="28" cy="28" r="28"/>
</g>
<g id="Guides" display="none">
</g>
<g id="Layer_2">
</g>
<g id="Layer_4">
	<path fill="#595959" d="M41.5,41h-8.079c0.048-0.187,0.079-0.379,0.079-0.578v-2.31c4.583-2.185,7.75-6.53,7.75-10.112
		c0-1.003-8.247-1.458-15.75-1.367V16.5c0-1.93-1.57-3.5-3.5-3.5h-5c-1.93,0-3.5,1.57-3.5,3.5v14c0,0.88,0.338,1.676,0.876,2.292
		c1.143,2.79,3.335,4.59,6.124,5.614v2.016c0,0.199,0.031,0.392,0.079,0.578H13.5c-0.828,0-1.5,0.672-1.5,1.5s0.672,1.5,1.5,1.5h28
		c0.828,0,1.5-0.672,1.5-1.5S42.328,41,41.5,41z M17,16h5c0.275,0,0.5,0.224,0.5,0.5v10.2c-2.313,0.078-4.408,0.213-6,0.406V16.5
		C16.5,16.224,16.725,16,17,16z"/>
</g>
</svg>
