<?xml version="1.0" encoding="utf-8"?>
<!-- Generator: Adobe Illustrator 16.0.0, SVG Export Plug-In . SVG Version: 6.00 Build 0)  -->
<!DOCTYPE svg PUBLIC "-//W3C//DTD SVG 1.1//EN" "http://www.w3.org/Graphics/SVG/1.1/DTD/svg11.dtd">
<svg version="1.1" xmlns="http://www.w3.org/2000/svg" xmlns:xlink="http://www.w3.org/1999/xlink" x="0px" y="0px" width="56px"
	 height="56px" viewBox="0 0 56 56" enable-background="new 0 0 56 56" xml:space="preserve">
<g id="Layer_1">
	<circle fill="#FFFEFC" cx="28" cy="28" r="28"/>
</g>
<g id="Guides" display="none">
</g>
<g id="Layer_2">
</g>
<g id="Layer_4">
	<g>
		<path fill="#595959" d="M34.5,35.5V33H37c1.93,0,3.5-1.57,3.5-3.5v-14c0-1.93-1.57-3.5-3.5-3.5H23c-1.93,0-3.5,1.57-3.5,3.5V17H16
			c-1.93,0-3.5,1.57-3.5,3.5v15c0,1.93,1.57,3.5,3.5,3.5h15C32.93,39,34.5,37.43,34.5,35.5z M31,36H16c-0.275,0-0.5-0.225-0.5-0.5
			v-15c0-0.275,0.225-0.5,0.5-0.5h3.5v9.5c0,1.93,1.57,3.5,3.5,3.5h8.5v2.5C31.5,35.775,31.275,36,31,36z"/>
		<path fill="#595959" d="M43.907,33.833c-0.328,0-0.637,0.147-0.871,0.361l-4.273,3.879c-0.396,0.361-0.616,0.884-0.616,1.42
			c0,1.126,0.924,2.09,2.057,2.09c0.569,0,1.052-0.228,1.46-0.609c0.837-0.771,2.593-4.046,3.115-5.037
			c0.16-0.315,0.301-0.656,0.301-1.012C45.079,34.288,44.517,33.833,43.907,33.833z"/>
		<path fill="#595959" d="M37.818,40.76c-1.508,0.066-2.398,0.335-2.968,1.821c-0.061,0.154-0.201,0.248-0.368,0.248
			c-0.281,0-1.146-0.689-1.394-0.857c0,2.057,0.984,3.865,3.256,3.865c1.915,0,3.242-1.313,3.201-3.222L39.54,42.14
			C38.803,41.945,38.166,41.436,37.818,40.76z"/>
	</g>
</g>
</svg>
