<?xml version="1.0" encoding="utf-8"?>
<!-- Generator: Adobe Illustrator 16.0.0, SVG Export Plug-In . SVG Version: 6.00 Build 0)  -->
<!DOCTYPE svg PUBLIC "-//W3C//DTD SVG 1.1//EN" "http://www.w3.org/Graphics/SVG/1.1/DTD/svg11.dtd">
<svg version="1.1" xmlns="http://www.w3.org/2000/svg" xmlns:xlink="http://www.w3.org/1999/xlink" x="0px" y="0px" width="56px"
	 height="56px" viewBox="0 0 56 56" enable-background="new 0 0 56 56" xml:space="preserve">
<g id="Layer_1">
	<circle fill="#FFFEFC" cx="28" cy="28" r="28"/>
</g>
<g id="Guides" display="none">
</g>
<g id="Layer_2">
</g>
<g id="Layer_4">
	<path fill="#595959" d="M42.441,31H42.5v-1.616v-0.387C42.5,27.6,41.923,26,40.021,26h-4.777c-1.901,0-2.744,1.6-2.744,2.997v0.387
		V30h-2.184c0.111-0.314,0.184-0.647,0.184-1l-0.021-9.911c0.07-0.122,0.451-0.359,0.896-0.359c0.24,0,0.656,0.214,0.779,0.369
		c0.801,1.438,2.612,1.965,4.062,1.172c1.453-0.795,1.986-2.618,1.191-4.072c-1.117-2.042-3.598-3.469-6.032-3.469
		c-3.791,0-6.875,2.813-6.875,6.271V29c0,0.353,0.072,0.686,0.184,1H22.5v-0.616v-0.387C22.5,27.6,21.923,26,20.021,26h-4.777
		c-1.901,0-2.744,1.6-2.744,2.997v0.387V31h0.059c-0.651,0.636-1.059,1.521-1.059,2.5v3c0,1.93,1.57,3.5,3.5,3.5h25
		c1.93,0,3.5-1.57,3.5-3.5v-3C43.5,32.521,43.093,31.636,42.441,31z M40.5,36.5c0,0.275-0.225,0.5-0.5,0.5H15
		c-0.275,0-0.5-0.225-0.5-0.5v-3c0-0.275,0.225-0.5,0.5-0.5h25c0.275,0,0.5,0.225,0.5,0.5V36.5z"/>
</g>
</svg>
