<?xml version="1.0" encoding="utf-8"?>
<!-- Generator: Adobe Illustrator 16.0.0, SVG Export Plug-In . SVG Version: 6.00 Build 0)  -->
<!DOCTYPE svg PUBLIC "-//W3C//DTD SVG 1.1//EN" "http://www.w3.org/Graphics/SVG/1.1/DTD/svg11.dtd">
<svg version="1.1" xmlns="http://www.w3.org/2000/svg" xmlns:xlink="http://www.w3.org/1999/xlink" x="0px" y="0px" width="7.506px"
	 height="11.681px" viewBox="0 0 7.506 11.681" enable-background="new 0 0 7.506 11.681" xml:space="preserve">
<g id="Layer_2">
</g>
<g id="Layer_1">
	<g>
		<path fill="#FFFFFF" d="M1.992,11.544c-0.182,0.182-0.471,0.182-0.652,0l-1.203-1.203c-0.182-0.182-0.182-0.471,0-0.652
			L3.985,5.84L0.136,1.992c-0.182-0.182-0.182-0.471,0-0.652l1.203-1.203c0.182-0.182,0.471-0.182,0.652,0L7.37,5.514
			c0.182,0.182,0.182,0.471,0,0.652L1.992,11.544z"/>
	</g>
</g>
</svg>
