<?xml version="1.0" encoding="utf-8"?>
<!-- Generator: Adobe Illustrator 17.0.0, SVG Export Plug-In . SVG Version: 6.00 Build 0)  -->
<!DOCTYPE svg PUBLIC "-//W3C//DTD SVG 1.1//EN" "http://www.w3.org/Graphics/SVG/1.1/DTD/svg11.dtd">
<svg version="1.1" id="Capa_1" xmlns="http://www.w3.org/2000/svg" xmlns:xlink="http://www.w3.org/1999/xlink" x="0px" y="0px"
	 width="7.506px" height="11.681px" viewBox="0 0 7.506 11.681" enable-background="new 0 0 7.506 11.681" xml:space="preserve">
<g id="Layer_2">
</g>
<g id="Layer_1">
	<g>
		<path fill="#F37520" d="M0.136,6.167c-0.182-0.182-0.182-0.471,0-0.652l5.378-5.378c0.182-0.182,0.471-0.182,0.652,0L7.37,1.339
			c0.182,0.182,0.182,0.471,0,0.652L3.521,5.84L7.37,9.689c0.182,0.182,0.182,0.471,0,0.652l-1.203,1.203
			c-0.182,0.182-0.471,0.182-0.652,0L0.136,6.167z"/>
	</g>
</g>
</svg>
