<?xml version="1.0" encoding="utf-8"?>
<!-- Generator: Adobe Illustrator 16.0.0, SVG Export Plug-In . SVG Version: 6.00 Build 0)  -->
<!DOCTYPE svg PUBLIC "-//W3C//DTD SVG 1.1//EN" "http://www.w3.org/Graphics/SVG/1.1/DTD/svg11.dtd">
<svg version="1.1" xmlns="http://www.w3.org/2000/svg" xmlns:xlink="http://www.w3.org/1999/xlink" x="0px" y="0px" width="9.318px"
	 height="9.599px" viewBox="0 0 9.318 9.599" enable-background="new 0 0 9.318 9.599" xml:space="preserve">
<g id="Layer_2">
</g>
<g id="Layer_1">
	<path fill="#FFFFFF" d="M9.172,8.745L6.774,6.346C7.35,5.672,7.711,4.81,7.711,3.855C7.711,1.729,5.981,0,3.855,0S0,1.729,0,3.855
		s1.729,3.855,3.855,3.855c0.812,0,1.563-0.255,2.185-0.685l2.425,2.426C8.563,9.55,8.69,9.599,8.818,9.599S9.074,9.55,9.172,9.452
		C9.367,9.257,9.367,8.94,9.172,8.745z M1,3.855C1,2.281,2.281,1,3.855,1s2.855,1.281,2.855,2.855S5.43,6.711,3.855,6.711
		S1,5.43,1,3.855z"/>
</g>
</svg>
