<?xml version="1.0" encoding="utf-8"?>
<!-- Generator: Adobe Illustrator 17.0.0, SVG Export Plug-In . SVG Version: 6.00 Build 0)  -->
<!DOCTYPE svg PUBLIC "-//W3C//DTD SVG 1.1//EN" "http://www.w3.org/Graphics/SVG/1.1/DTD/svg11.dtd">
<svg version="1.1" id="Capa_1" xmlns="http://www.w3.org/2000/svg" xmlns:xlink="http://www.w3.org/1999/xlink" x="0px" y="0px"
	 width="20px" height="20px" viewBox="0 0 20 20" enable-background="new 0 0 20 20" xml:space="preserve">
<g id="Layer_2">
</g>
<g id="Layer_1">
	<path fill="#FFFFFF" d="M16.471,2.733H3.451c-0.41,0-1.094,0.469-1.094,1.445v6.915c0,0.41,0.273,0.64,0.684,0.64h3.316v3.31
		c0,0.251,0.281,0.961,1.219,0.268l4.157-3.578h4.874c0.41,0,0.75,0.035,0.75-0.375v-7.18C17.357,3.229,16.881,2.733,16.471,2.733z"
		/>
</g>
</svg>
